## Autogenerated by Scribe. DO NOT MODIFY.

name: 'Tournament Management'
description: |-

  APIS for managing tournaments
endpoints:
  -
    httpMethods:
      - GET
    uri: tournaments
    metadata:
      title: 'Get tournaments'
      description: 'Tournament list is ordered in descending order by creation time.'
      authenticated: false
      custom: []
    headers:
      Content-Type: application/json
      Accept: application/json
    urlParameters: []
    queryParameters:
      page:
        name: page
        description: 'Defaults to ```1```. Values less than 1 will default to 1.'
        required: false
        example: 1
        type: integer
        custom: []
      name:
        name: name
        description: 'Search for tournament that contains ```name``` keyword.'
        required: false
        example: null
        type: string
        custom: []
      limit:
        name: limit
        description: 'Defaults to ```10```. Values less than 1 will default to 1.'
        required: false
        example: 10
        type: integer
        custom: []
      user:
        name: user
        description: 'Get tournaments owned by specified user with id.'
        required: false
        example: 20
        type: integer
        custom: []
    bodyParameters: []
    responses:
      -
        status: 200
        content: |-
          {
            "count": 100,
            "total_pages": 10,
            "page": 1,
            "next_page": "/tournaments?page=2",
            "prev_page": null,
            "results": [
              {
                "id": 1,
                "name": "Tournament 1",
                "description": "The mind is willing, but the body is spongy and bruised",
                "started": false,
                "created_at": "1970-01-01 00:00:00",
                "updated_at": "1970-01-01 00:00:00",
                "_url": "/tournaments/1"
              }
            ]
          }
        headers: []
        description: '200, Success'
      -
        status: 404
        content: |-
          {
            "message": "Reason of error"
          }
        headers: []
        description: '404, Not Found'
    responseFields:
      count:
        name: count
        description: ''
        type: integer
      total_pages:
        name: total_pages
        description: ''
        type: integer
      next_page:
        name: next_page
        description: 'Returns ```null``` if last page is reached.'
        type: string
      prev_page:
        name: prev_page
        description: 'Returns ```null``` if it is the first page.'
        type: string
      results:
        name: results
        description: 'List of tournaments'
        type: 'object[]'
      results.id:
        name: results.id
        description: 'Tournament ID.'
        type: integer
      results.name:
        name: results.name
        description: 'Tournament name.'
        type: string
      results.description:
        name: results.description
        description: 'Tournament description.'
        type: string
      results.started:
        name: results.started
        description: 'Tournament started.'
        type: boolean
      results._url:
        name: results._url
        description: 'URL to tournament resource.'
        type: string
      results.created_at:
        name: results.created_at
        description: 'Tournament creation timestamp.'
        type: string
      results.updated_at:
        name: results.updated_at
        description: 'Last update timestamp.'
        type: string
  -
    httpMethods:
      - GET
    uri: 'tournaments/{tournament}'
    metadata:
      title: 'Get a tournament'
      description: ''
      authenticated: false
      custom: []
    headers:
      Content-Type: application/json
      Accept: application/json
    urlParameters:
      tournament:
        name: tournament
        description: ''
        required: true
        example: 10
        type: integer
        custom: []
    queryParameters: []
    bodyParameters: []
    responses:
      -
        status: 200
        content: |-
          {
            "id": 1,
            "name": "Tournament 1",
            "description": "The mind is willing, but the body is spongy and bruised",
            "started": false,
            "created_at": "1970-01-01 00:00:00",
            "updated_at": "1970-01-01 00:00:00",
            "_url": "/tournaments/1"
          }
        headers: []
        description: '200, Success'
      -
        status: 404
        content: |-
          {
            "message": "Reason of error"
          }
        headers: []
        description: '404, Not Found'
    responseFields:
      id:
        name: id
        description: 'Tournament ID.'
        type: integer
      name:
        name: name
        description: 'Tournament name.'
        type: string
      description:
        name: description
        description: 'Tournament description.'
        type: string
      started:
        name: started
        description: 'Tournament started.'
        type: boolean
      _url:
        name: _url
        description: 'URL to tournament resource.'
        type: string
      created_at:
        name: created_at
        description: 'Tournament creation timestamp.'
        type: string
      updated_at:
        name: updated_at
        description: 'Last update timestamp.'
        type: string
  -
    httpMethods:
      - POST
    uri: tournaments
    metadata:
      title: 'Create a tournament'
      description: ''
      authenticated: true
      custom: []
    headers:
      Authorization: 'Bearer {YOUR_AUTH_KEY}'
      Content-Type: application/json
      Accept: application/json
    urlParameters: []
    queryParameters: []
    bodyParameters:
      name:
        name: name
        description: 'Name of the tournament. Must be less than or equal to 100 characters. Must not be greater than 100 characters.'
        required: true
        example: 'Tournament Awesome'
        type: string
        custom: []
      description:
        name: description
        description: 'Short description of the tournament. Must be less than or equal to 500 characters. Note: WYSIWYG tags and markdowns are considered too. Must not be greater than 500 characters.'
        required: false
        example: 'Lorem ipsum dolor sit...'
        type: string
        custom: []
    responses:
      -
        status: 401
        content: '{"message": "Unauthenticated"}'
        headers: []
        description: '401, Unauthorized'
      -
        status: 201
        content: |-
          {
            "id": 1,
            "name": "Tournament 1",
            "description": "The mind is willing, but the body is spongy and bruised",
            "started": false,
            "created_at": "1970-01-01 00:00:00",
            "updated_at": "1970-01-01 00:00:00",
            "_url": "/tournaments/1"
          }
        headers: []
        description: '201, Created'
      -
        status: 422
        content: |-
          {
            "message": "Please give a name to the tournament (and 1 more error)",
            "errors": {
                "name": [
                    "Please give a name to the tournament"
                ],
                "description": [
                    "Description must be under 500 characters"
                ]
            }
          }
        headers: []
        description: '422, Invalid Request Body'
    responseFields: []
  -
    httpMethods:
      - PUT
    uri: 'tournaments/{tournament}'
    metadata:
      title: 'Replace a tournament'
      description: 'Tournament can only be replaces/edited by tournament owner.'
      authenticated: false
      custom: []
    headers:
      Content-Type: application/json
      Accept: application/json
    urlParameters:
      tournament:
        name: tournament
        description: ''
        required: true
        example: 19
        type: integer
        custom: []
    queryParameters: []
    bodyParameters:
      name:
        name: name
        description: 'Name of the tournament. Must be less than or equal to 100 characters. Must not be greater than 100 characters.'
        required: true
        example: 'Tournament Awesome'
        type: string
        custom: []
      description:
        name: description
        description: 'Short description of the tournament. Must be less than or equal to 500 characters. Note: WYSIWYG tags and markdowns are considered too. Must not be greater than 500 characters.'
        required: false
        example: 'Lorem ipsum dolor sit...'
        type: string
        custom: []
    responses:
      -
        status: 200
        content: |-
          {
            "id": 1,
            "name": "Tournament 1",
            "description": "The mind is willing, but the body is spongy and bruised",
            "started": false,
            "created_at": "1970-01-01 00:00:00",
            "updated_at": "1970-01-01 00:00:00",
            "_url": "/tournaments/1"
          }
        headers: []
        description: '200, Success'
      -
        status: 404
        content: |-
          {
            "message": "Reason of error"
          }
        headers: []
        description: '404, Not Found'
      -
        status: 422
        content: |-
          {
            "message": "Please give a name to the tournament (and 1 more error)",
            "errors": {
                "name": [
                    "Please give a name to the tournament"
                ],
                "description": [
                    "Description must be under 500 characters"
                ]
            }
          }
        headers: []
        description: '422, Invalid Request Body'
    responseFields: []
  -
    httpMethods:
      - DELETE
    uri: 'tournaments/{tournament}'
    metadata:
      title: 'Delete a tournament'
      description: 'Tournament can only be deleted by tournament owner.'
      authenticated: true
      custom: []
    headers:
      Authorization: 'Bearer {YOUR_AUTH_KEY}'
      Content-Type: application/json
      Accept: application/json
    urlParameters:
      tournament:
        name: tournament
        description: ''
        required: true
        example: 17
        type: integer
        custom: []
    queryParameters: []
    bodyParameters: []
    responses:
      -
        status: 200
        content: '{"message": "Tournament deleted"}'
        headers: []
        description: '200, Success'
      -
        status: 401
        content: '{"message": "Unauthenticated"}'
        headers: []
        description: '401, Unauthorized'
      -
        status: 404
        content: |-
          {
            "message": "Reason of error"
          }
        headers: []
        description: '404, Not Found'
    responseFields: []
  -
    httpMethods:
      - PUT
    uri: 'tournaments/{tournament}/start'
    metadata:
      title: 'Start Tournament'
      description: 'Start a tournament. Tournament can only be started if all initial brackets are filled and can only be started by tournamnet owner.'
      authenticated: true
      custom: []
    headers:
      Authorization: 'Bearer {YOUR_AUTH_KEY}'
      Content-Type: application/json
      Accept: application/json
    urlParameters:
      tournament:
        name: tournament
        description: ''
        required: true
        example: 6
        type: integer
        custom: []
    queryParameters: []
    bodyParameters: []
    responses:
      -
        status: 200
        content: '{"message": "Tournament started"}'
        headers: []
        description: '200, Success'
      -
        status: 400
        content: '{"message": "Error message"}'
        headers: []
        description: '400, Bad Request'
      -
        status: 401
        content: '{"message": "Unauthenticated"}'
        headers: []
        description: '401, Unauthorized'
      -
        status: 404
        content: |-
          {
            "message": "Reason of error"
          }
        headers: []
        description: '404, Not Found'
    responseFields: []
