{
  "count": 100,
  "total_pages": 10,
  "page": 1,
  "next_page": "/tournaments?page=2",
  "prev_page": null,
  "results": [
    {
      "id": 1,
      "name": "Tournament 1",
      "description": "The mind is willing, but the body is spongy and bruised",
      "created_at": "1970-01-01 00:00:00",
      "updated_at": "1970-01-01 00:00:00",
      "_url": "/tournaments/1"
    }
  ]
}